{
  "main.css": "static/css/main.b856753a.css",
  "main.css.map": "static/css/main.b856753a.css.map",
  "main.js": "static/js/main.5ca00c3e.js",
  "main.js.map": "static/js/main.5ca00c3e.js.map",
  "static/media/fontawesome-webfont.eot?v=4.7.0": "static/media/fontawesome-webfont.674f50d2.eot",
  "static/media/fontawesome-webfont.svg?v=4.7.0": "static/media/fontawesome-webfont.912ec66d.svg",
  "static/media/fontawesome-webfont.ttf?v=4.7.0": "static/media/fontawesome-webfont.b06871f2.ttf",
  "static/media/fontawesome-webfont.woff2?v=4.7.0": "static/media/fontawesome-webfont.af7ae505.woff2",
  "static/media/fontawesome-webfont.woff?v=4.7.0": "static/media/fontawesome-webfont.fee66e71.woff"
}